<?xml version="1.0" encoding="UTF-8" standalone="no"?>
<svg width="111px" height="37px" viewBox="0 0 111 37" version="1.1" xmlns="http://www.w3.org/2000/svg" xmlns:xlink="http://www.w3.org/1999/xlink" xmlns:sketch="http://www.bohemiancoding.com/sketch/ns">
    <!-- Generator: Sketch 3.4.4 (17249) - http://www.bohemiancoding.com/sketch -->
    <title>byncnd</title>
    <desc>Created with Sketch.</desc>
    <defs></defs>
    <g id="Page-1" stroke="none" stroke-width="1" fill="none" fill-rule="evenodd" sketch:type="MSPage">
        <g id="byncnd" sketch:type="MSLayerGroup" fill="#FFFFFF">
            <path d="M22.3657,15.5063 C21.9747,14.6543 21.4017,14.2293 20.6457,14.2293 C19.2397,14.2293 18.5357,15.1573 18.5357,17.0123 C18.5357,18.8683 19.2397,19.7963 20.6457,19.7963 C21.5587,19.7963 22.1967,19.3433 22.5607,18.4383 L24.5147,19.4563 C23.6057,21.0733 22.2407,21.8843 20.4217,21.8843 C19.0187,21.8843 17.8957,21.4523 17.0507,20.5913 C16.2067,19.7293 15.7837,18.5423 15.7837,17.0283 C15.7837,15.5403 16.2127,14.3593 17.0707,13.4843 C17.9277,12.6103 19.0187,12.1733 20.3447,12.1733 C22.2667,12.1733 23.6437,12.9313 24.4747,14.4473 L22.3657,15.5063 Z M13.3757,15.5063 C12.9857,14.6543 12.4007,14.2293 11.6207,14.2293 C10.2427,14.2293 9.5537,15.1573 9.5537,17.0123 C9.5537,18.8683 10.2427,19.7963 11.6207,19.7963 C12.5307,19.7963 13.1807,19.3433 13.5707,18.4383 L15.4827,19.4563 C14.5707,21.0733 13.2047,21.8843 11.3827,21.8843 C9.9777,21.8843 8.8517,21.4523 8.0067,20.5913 C7.1597,19.7293 6.7377,18.5423 6.7377,17.0283 C6.7377,15.5403 7.1737,14.3593 8.0457,13.4843 C8.9167,12.6103 10.0037,12.1733 11.3047,12.1733 C13.2317,12.1733 14.6097,12.9313 15.4447,14.4473 L13.3757,15.5063 Z M6.6487,7.9573 C4.0927,10.5393 2.8147,13.5633 2.8147,17.0323 C2.8147,20.5013 4.0797,23.4993 6.6097,26.0283 C9.1397,28.5573 12.1517,29.8223 15.6467,29.8223 C19.1407,29.8223 22.1787,28.5453 24.7607,25.9893 C27.2127,23.6163 28.4387,20.6323 28.4387,17.0323 C28.4387,13.4603 27.1917,10.4283 24.7007,7.9383 C22.2107,5.4473 19.1927,4.2023 15.6467,4.2023 C12.0997,4.2023 9.0997,5.4543 6.6487,7.9573 L6.6487,7.9573 Z M26.7037,5.9233 C29.7267,8.9473 31.2387,12.6493 31.2387,17.0283 C31.2387,21.4083 29.7537,25.0703 26.7817,28.0163 C23.6277,31.1183 19.9007,32.6693 15.5997,32.6693 C11.3507,32.6693 7.6887,31.1323 4.6137,28.0543 C1.5377,24.9793 -0.0003,21.3033 -0.0003,17.0283 C-0.0003,12.7533 1.5377,9.0523 4.6137,5.9233 C7.6107,2.8993 11.2737,1.3873 15.5997,1.3873 C19.9797,1.3873 23.6797,2.8993 26.7037,5.9233 L26.7037,5.9233 Z" id="Fill-1" sketch:type="MSShapeGroup"></path>
            <path d="M42.7236,35.7197 C42.8666,35.7197 43.0026,35.7057 43.1326,35.6777 C43.2626,35.6497 43.3766,35.6027 43.4766,35.5387 C43.5756,35.4737 43.6546,35.3857 43.7136,35.2747 C43.7726,35.1627 43.8016,35.0207 43.8016,34.8477 C43.8016,34.5087 43.7056,34.2657 43.5136,34.1197 C43.3216,33.9757 43.0686,33.9037 42.7516,33.9037 L41.1616,33.9037 L41.1616,35.7197 L42.7236,35.7197 Z M42.6386,32.9087 C42.8986,32.9087 43.1126,32.8467 43.2796,32.7237 C43.4466,32.6007 43.5306,32.4007 43.5306,32.1227 C43.5306,31.9687 43.5016,31.8417 43.4466,31.7427 C43.3906,31.6447 43.3166,31.5677 43.2236,31.5117 C43.1306,31.4557 43.0236,31.4167 42.9036,31.3967 C42.7826,31.3747 42.6566,31.3647 42.5266,31.3647 L41.1616,31.3647 L41.1616,32.9087 L42.6386,32.9087 Z M42.8246,30.2317 C43.1406,30.2317 43.4296,30.2587 43.6896,30.3147 C43.9496,30.3697 44.1716,30.4607 44.3576,30.5877 C44.5436,30.7137 44.6866,30.8827 44.7896,31.0927 C44.8916,31.3037 44.9436,31.5617 44.9436,31.8717 C44.9436,32.2057 44.8676,32.4837 44.7156,32.7047 C44.5636,32.9287 44.3396,33.1107 44.0416,33.2527 C44.4506,33.3697 44.7566,33.5747 44.9586,33.8697 C45.1606,34.1627 45.2616,34.5187 45.2616,34.9327 C45.2616,35.2667 45.1966,35.5557 45.0666,35.7997 C44.9366,36.0437 44.7606,36.2427 44.5416,36.3977 C44.3216,36.5527 44.0696,36.6667 43.7886,36.7407 C43.5056,36.8157 43.2166,36.8527 42.9186,36.8527 L39.7026,36.8527 L39.7026,30.2317 L42.8246,30.2317 Z" id="Fill-4" sketch:type="MSShapeGroup"></path>
            <path d="M45.5185,30.2314 L47.1515,30.2314 L48.7025,32.8464 L50.2445,30.2314 L51.8675,30.2314 L49.4095,34.3114 L49.4095,36.8524 L47.9495,36.8524 L47.9495,34.2744 L45.5185,30.2314 Z" id="Fill-6" sketch:type="MSShapeGroup"></path>
            <path d="M67.249,30.2314 L70.016,34.6724 L70.031,34.6724 L70.031,30.2314 L71.397,30.2314 L71.397,36.8524 L69.94,36.8524 L67.185,32.4194 L67.166,32.4194 L67.166,36.8524 L65.8,36.8524 L65.8,30.2314 L67.249,30.2314 Z" id="Fill-8" sketch:type="MSShapeGroup"></path>
            <path d="M76.9267,31.9951 C76.8397,31.8551 76.7317,31.7331 76.6007,31.6281 C76.4717,31.5231 76.3247,31.4401 76.1607,31.3831 C75.9967,31.3231 75.8247,31.2941 75.6467,31.2941 C75.3187,31.2941 75.0397,31.3571 74.8107,31.4841 C74.5807,31.6101 74.3967,31.7801 74.2547,31.9941 C74.1127,32.2081 74.0087,32.4501 73.9427,32.7221 C73.8777,32.9931 73.8467,33.2741 73.8467,33.5651 C73.8467,33.8441 73.8777,34.1141 73.9427,34.3761 C74.0087,34.6401 74.1127,34.8761 74.2547,35.0851 C74.3967,35.2961 74.5807,35.4641 74.8107,35.5911 C75.0397,35.7181 75.3187,35.7811 75.6467,35.7811 C76.0907,35.7811 76.4387,35.6451 76.6897,35.3731 C76.9407,35.1001 77.0927,34.7421 77.1487,34.2971 L78.5587,34.2971 C78.5227,34.7111 78.4257,35.0861 78.2717,35.4191 C78.1167,35.7551 77.9127,36.0381 77.6587,36.2741 C77.4057,36.5111 77.1087,36.6891 76.7687,36.8131 C76.4287,36.9381 76.0537,37.0001 75.6467,37.0001 C75.1387,37.0001 74.6827,36.9121 74.2767,36.7351 C73.8717,36.5591 73.5307,36.3151 73.2507,36.0071 C72.9717,35.6981 72.7587,35.3341 72.6107,34.9171 C72.4617,34.4991 72.3857,34.0501 72.3857,33.5651 C72.3857,33.0711 72.4617,32.6121 72.6107,32.1881 C72.7587,31.7651 72.9717,31.3941 73.2507,31.0791 C73.5307,30.7641 73.8717,30.5161 74.2767,30.3371 C74.6827,30.1571 75.1387,30.0671 75.6467,30.0671 C76.0107,30.0671 76.3567,30.1201 76.6807,30.2251 C77.0047,30.3311 77.2957,30.4841 77.5517,30.6861 C77.8097,30.8871 78.0207,31.1361 78.1887,31.4331 C78.3547,31.7291 78.4597,32.0711 78.5027,32.4541 L77.0927,32.4541 C77.0697,32.2871 77.0127,32.1341 76.9267,31.9951" id="Fill-10" sketch:type="MSShapeGroup"></path>
            <path d="M93.0869,30.2314 L95.8539,34.6724 L95.8689,34.6724 L95.8689,30.2314 L97.2349,30.2314 L97.2349,36.8524 L95.7779,36.8524 L93.0229,32.4194 L93.0049,32.4194 L93.0049,36.8524 L91.6379,36.8524 L91.6379,30.2314 L93.0869,30.2314 Z" id="Fill-13" sketch:type="MSShapeGroup"></path>
            <path d="M101.2705,35.626 C101.4805,35.626 101.6845,35.593 101.8815,35.524 C102.0795,35.456 102.2565,35.344 102.4115,35.185 C102.5655,35.028 102.6905,34.823 102.7825,34.57 C102.8745,34.317 102.9215,34.008 102.9215,33.644 C102.9215,33.31 102.8895,33.009 102.8255,32.74 C102.7595,32.472 102.6535,32.241 102.5045,32.05 C102.3565,31.859 102.1595,31.712 101.9155,31.61 C101.6705,31.508 101.3695,31.458 101.0105,31.458 L99.9715,31.458 L99.9715,35.626 L101.2705,35.626 Z M101.3715,30.231 C101.7995,30.231 102.1965,30.299 102.5655,30.435 C102.9345,30.57 103.2525,30.775 103.5225,31.047 C103.7905,31.318 104.0015,31.659 104.1535,32.067 C104.3055,32.476 104.3815,32.954 104.3815,33.505 C104.3815,33.987 104.3195,34.432 104.1965,34.841 C104.0715,35.247 103.8835,35.601 103.6335,35.897 C103.3825,36.194 103.0705,36.428 102.6965,36.598 C102.3215,36.768 101.8795,36.852 101.3715,36.852 L98.5115,36.852 L98.5115,30.231 L101.3715,30.231 Z" id="Fill-15" sketch:type="MSShapeGroup"></path>
            <path d="M72.5869,2.9565 C69.9539,2.9565 67.7299,3.8835 65.9109,5.7395 C65.4149,6.2395 64.9839,6.7605 64.6199,7.3055 L69.0519,9.2795 C69.4519,8.0495 70.6209,7.3035 72.0399,7.2205 L72.0399,5.4325 L73.3719,5.4325 L73.3719,7.2205 C74.2879,7.2645 75.2939,7.5165 76.2839,8.2835 L74.7609,9.8505 C74.1989,9.4515 73.4889,9.1705 72.7789,9.1705 C72.2029,9.1705 71.3889,9.3475 71.3889,10.0715 C71.3889,10.1815 71.4269,10.2785 71.4929,10.3665 L72.9769,11.0245 L73.9799,11.4725 C74.6219,11.7595 75.2349,12.0305 75.8409,12.3015 L81.7839,14.9465 C81.9799,14.1685 82.0789,13.3405 82.0789,12.4645 C82.0789,9.8165 81.1499,7.5755 79.2919,5.7395 C77.4529,3.8835 75.2199,2.9565 72.5869,2.9565 L72.5869,2.9565 Z M63.5849,9.3495 C63.2389,10.3285 63.0659,11.3665 63.0659,12.4645 C63.0659,15.0345 64.0049,17.2565 65.8819,19.1315 C67.7589,21.0045 69.9939,21.9425 72.5869,21.9425 C75.1799,21.9425 77.4349,20.9965 79.3499,19.1025 C79.9909,18.4825 80.5209,17.8065 80.9349,17.0745 L76.5629,15.1275 C76.2669,16.5985 74.9549,17.5915 73.3719,17.7075 L73.3719,19.4965 L72.0399,19.4965 L72.0399,17.7075 C70.7389,17.6935 69.4819,17.1615 68.5209,16.3195 L70.1179,14.7095 C70.8859,15.4335 71.6549,15.7585 72.7059,15.7585 C73.3859,15.7585 74.1399,15.4925 74.1399,14.6065 C74.1399,14.2915 74.0189,14.0735 73.8269,13.9095 L72.7219,13.4185 L71.3449,12.8045 C70.6639,12.5005 70.0869,12.2455 69.5079,11.9865 L63.5849,9.3495 Z M72.5579,0.8695 C75.8099,0.8695 78.5569,1.9905 80.8019,4.2315 C83.0459,6.4735 84.1689,9.2185 84.1689,12.4645 C84.1689,15.7105 83.0659,18.4265 80.8599,20.6105 C78.5189,22.9105 75.7499,24.0595 72.5579,24.0595 C69.4039,24.0595 66.6849,22.9185 64.4009,20.6385 C62.1179,18.3595 60.9769,15.6335 60.9769,12.4645 C60.9769,9.2945 62.1179,6.5505 64.4009,4.2315 C66.6259,1.9905 69.3459,0.8695 72.5579,0.8695 L72.5579,0.8695 Z" id="Fill-17" sketch:type="MSShapeGroup"></path>
            <path d="M98.6777,2.9551 C101.3097,2.9551 103.5447,3.8841 105.3837,5.7391 C107.2407,7.5751 108.1687,9.8161 108.1687,12.4651 C108.1687,15.1311 107.2607,17.3441 105.4427,19.1021 C103.5257,20.9961 101.2707,21.9421 98.6777,21.9421 C96.0847,21.9421 93.8497,21.0051 91.9727,19.1301 C90.0957,17.2561 89.1567,15.0341 89.1567,12.4651 C89.1567,9.8931 90.1057,7.6521 92.0027,5.7391 C93.8207,3.8841 96.0457,2.9551 98.6777,2.9551 M98.6497,0.8701 C95.4377,0.8701 92.7177,1.9891 90.4927,4.2311 C88.2087,6.5501 87.0677,9.2941 87.0677,12.4651 C87.0677,15.6341 88.2087,18.3581 90.4927,20.6391 C92.7757,22.9191 95.4947,24.0601 98.6497,24.0601 C101.8427,24.0601 104.6097,22.9091 106.9507,20.6101 C109.1567,18.4261 110.2607,15.7101 110.2607,12.4651 C110.2607,9.2171 109.1377,6.4741 106.8937,4.2311 C104.6477,1.9891 101.8997,0.8701 98.6497,0.8701" id="Fill-20" sketch:type="MSShapeGroup"></path>
            <path d="M103.045,13.443 L94.616,13.443 L94.616,15.439 L103.045,15.439 L103.045,13.443 Z M103.045,9.716 L94.616,9.716 L94.616,11.713 L103.045,11.713 L103.045,9.716 Z" id="Fill-22" sketch:type="MSShapeGroup"></path>
            <path d="M49.6035,9.5933 C49.6035,9.1793 49.2675,8.8443 48.8545,8.8443 L44.1115,8.8443 C43.6985,8.8443 43.3625,9.1793 43.3625,9.5933 L43.3625,14.3363 L44.6845,14.3363 L44.6845,19.9523 L48.2795,19.9523 L48.2795,14.3363 L49.6035,14.3363 L49.6035,9.5933 Z" id="Fill-24" sketch:type="MSShapeGroup"></path>
            <path d="M46.4829,4.9756 C47.3789,4.9756 48.1049,5.7026 48.1049,6.5976 C48.1049,7.4936 47.3789,8.2196 46.4829,8.2196 C45.5869,8.2196 44.8609,7.4936 44.8609,6.5976 C44.8609,5.7026 45.5869,4.9756 46.4829,4.9756" id="Fill-25" sketch:type="MSShapeGroup"></path>
            <path d="M46.498,2.9561 C49.13,2.9561 51.364,3.8841 53.202,5.7391 C55.061,7.5741 55.989,9.8161 55.989,12.4641 C55.989,15.1301 55.08,17.3441 53.26,19.1021 C51.345,20.9951 49.09,21.9421 46.498,21.9421 C43.904,21.9421 41.669,21.0051 39.792,19.1311 C37.915,17.2561 36.977,15.0341 36.977,12.4641 C36.977,9.8931 37.925,7.6521 39.821,5.7391 C41.641,3.8841 43.866,2.9561 46.498,2.9561 M46.468,0.8691 C43.256,0.8691 40.537,1.9901 38.312,4.2321 C36.028,6.5501 34.887,9.2951 34.887,12.4641 C34.887,15.6321 36.028,18.3581 38.312,20.6391 C40.596,22.9191 43.315,24.0581 46.468,24.0581 C49.661,24.0581 52.429,22.9091 54.771,20.6081 C56.975,18.4261 58.079,15.7101 58.079,12.4641 C58.079,9.2171 56.957,6.4741 54.712,4.2321 C52.467,1.9901 49.72,0.8691 46.468,0.8691" id="Fill-26" sketch:type="MSShapeGroup"></path>
        </g>
    </g>
</svg>